<?xml version="1.0" encoding="UTF-8" standalone="no"?>
<svg width="34px" height="32px" viewBox="0 0 34 32" version="1.1" xmlns="http://www.w3.org/2000/svg" xmlns:xlink="http://www.w3.org/1999/xlink">
    <!-- Generator: Sketch 3.6.1 (26313) - http://www.bohemiancoding.com/sketch -->
    <title>LinkedIn</title>
    <desc>Created with Sketch.</desc>
    <defs></defs>
    <g id="Page-1" stroke="none" stroke-width="1" fill="none" fill-rule="evenodd">
        <g id="red-copy" transform="translate(-267.000000, -698.000000)" fill="#FFFFFF">
            <path d="M300.467075,717.619175 L300.467075,730 L293.293997,730 L293.293997,718.448368 C293.293997,715.546503 292.256489,713.566095 289.660072,713.566095 C287.678038,713.566095 286.498527,714.900745 285.979618,716.191795 C285.790386,716.65334 285.741677,717.29575 285.741677,717.94182 L285.741677,730 L278.566187,730 C278.566187,730 278.662826,710.435326 278.566187,708.40828 L285.740977,708.40828 L285.740977,711.46882 C285.726426,711.491711 285.707519,711.516392 285.693824,711.538581 L285.740977,711.538581 L285.740977,711.46882 C286.694218,709.999708 288.396606,707.901032 292.20708,707.901032 C296.927999,707.900954 300.467075,710.987032 300.467075,717.619175 L300.467075,717.619175 Z M271.060319,698 C268.605594,698 267,699.611126 267,701.729812 C267,703.802327 268.559141,705.462348 270.965081,705.462348 L271.013011,705.462348 C273.515278,705.462348 275.071463,703.802638 275.071463,701.729812 C275.024311,699.611126 273.515278,698 271.060319,698 L271.060319,698 Z M267.426161,730 L274.598928,730 L274.598928,708.40828 L267.426161,708.40828 L267.426161,730 L267.426161,730 Z" id="LinkedIn"></path>
        </g>
    </g>
</svg>