<?xml version="1.0" encoding="UTF-8" standalone="no"?>
<svg width="46px" height="31px" viewBox="0 0 46 31" version="1.1" xmlns="http://www.w3.org/2000/svg" xmlns:xlink="http://www.w3.org/1999/xlink">
    <!-- Generator: Sketch 3.6.1 (26313) - http://www.bohemiancoding.com/sketch -->
    <title>Twitter__x28_alt_x29_</title>
    <desc>Created with Sketch.</desc>
    <defs></defs>
    <g id="Page-1" stroke="none" stroke-width="1" fill="none" fill-rule="evenodd">
        <g id="red-copy" transform="translate(-163.000000, -701.000000)" fill="#FFFFFF">
            <path d="M203.128164,714.782091 C205.669897,714.573581 207.393986,713.424628 208.057486,711.865665 C207.140623,712.425703 204.294497,713.036274 202.722657,712.454788 C202.645638,712.087567 202.559571,711.738759 202.475081,711.423849 C201.277394,707.050883 197.176658,703.527862 192.879902,703.953462 C193.22754,703.813897 193.580123,703.683957 193.931653,703.567305 C194.404605,703.398864 197.179498,702.949934 196.742531,701.976013 C196.374271,701.119373 192.983962,702.62341 192.345609,702.819994 C193.188294,702.504874 194.581896,701.962831 194.731199,701 C193.440184,701.176078 192.172842,701.782987 191.193586,702.665468 C191.547115,702.287052 191.815314,701.825881 191.872237,701.329557 C188.428898,703.516877 186.41746,707.926669 184.789645,712.204324 C183.511466,710.972617 182.378592,710.002672 181.362299,709.464081 C178.511228,707.943827 175.102295,706.357662 169.751053,704.38241 C169.586808,706.142874 170.62667,708.483673 173.623046,710.040335 C172.973856,709.953918 171.78669,710.146735 170.83721,710.372822 C171.223883,712.389609 172.4867,714.051206 175.905418,714.854698 C174.343048,714.957227 173.535611,715.310743 172.803825,716.072701 C173.515409,717.47536 175.251809,719.126181 178.375392,718.787312 C174.902593,720.275656 176.959379,723.031907 179.785198,722.62085 C174.964566,727.571848 167.364305,727.207975 163,723.066955 C174.39492,738.506145 199.164842,732.197683 202.856178,717.326797 C205.621813,717.350233 207.247629,716.37422 208.255715,715.298188 C206.662306,715.567065 204.352788,715.289191 203.128164,714.782091 L203.128164,714.782091 Z" id="Twitter__x28_alt_x29_"></path>
        </g>
    </g>
</svg>