<?xml version="1.0" encoding="UTF-8" standalone="no"?>
<svg
   xmlns:dc="http://purl.org/dc/elements/1.1/"
   xmlns:cc="http://creativecommons.org/ns#"
   xmlns:rdf="http://www.w3.org/1999/02/22-rdf-syntax-ns#"
   xmlns:svg="http://www.w3.org/2000/svg"
   xmlns="http://www.w3.org/2000/svg"
   xmlns:sodipodi="http://sodipodi.sourceforge.net/DTD/sodipodi-0.dtd"
   xmlns:inkscape="http://www.inkscape.org/namespaces/inkscape"
   width="24"
   height="24"
   viewBox="0 0 24 24"
   id="svg6194"
   version="1.1"
   inkscape:version="0.91 r13725"
   sodipodi:docname="icon-arrow-down-alt-24--white.svg">
  <metadata
     id="metadata6206">
    <rdf:RDF>
      <cc:Work
         rdf:about="">
        <dc:format>image/svg+xml</dc:format>
        <dc:type
           rdf:resource="http://purl.org/dc/dcmitype/StillImage" />
        <dc:title></dc:title>
      </cc:Work>
    </rdf:RDF>
  </metadata>
  <defs
     id="defs6204" />
  <sodipodi:namedview
     pagecolor="#ffffff"
     bordercolor="#666666"
     borderopacity="1"
     objecttolerance="10"
     gridtolerance="10"
     guidetolerance="10"
     inkscape:pageopacity="0"
     inkscape:pageshadow="2"
     inkscape:window-width="1311"
     inkscape:window-height="800"
     id="namedview6202"
     showgrid="true"
     inkscape:snap-smooth-nodes="false"
     inkscape:object-nodes="true"
     inkscape:zoom="13.906433"
     inkscape:cx="10.677966"
     inkscape:cy="12"
     inkscape:window-x="174"
     inkscape:window-y="193"
     inkscape:window-maximized="0"
     inkscape:current-layer="svg6194">
    <inkscape:grid
       type="xygrid"
       id="grid6756" />
  </sodipodi:namedview>
  <g
     id="g6196"
     style="color:#000000;fill:#ffffff;fill-opacity:1;stroke-width:0"
     transform="translate(0,3)">
    <path
       style="overflow:visible;isolation:auto;mix-blend-mode:normal;fill:#ffffff;fill-opacity:1"
       overflow="visible"
       d="M 3.514,6.272 14.12,16.88 12,19 1.393,8.394 Z"
       id="path6198"
       inkscape:connector-curvature="0" />
    <path
       style="overflow:visible;isolation:auto;mix-blend-mode:normal;fill:#ffffff;fill-opacity:1"
       overflow="visible"
       d="M 20.485,6.272 9.878,16.88 12,19 22.606,8.394 Z"
       id="path6200"
       inkscape:connector-curvature="0" />
  </g>
  <g
     style="color:#000000;fill:#ffffff;fill-opacity:1;stroke-width:0"
     id="g6748"
     transform="translate(0,-1.5887299)" />
  <rect
     style="color:#000000;clip-rule:nonzero;display:inline;overflow:visible;visibility:visible;opacity:1;isolation:auto;mix-blend-mode:normal;color-interpolation:sRGB;color-interpolation-filters:linearRGB;solid-color:#000000;solid-opacity:1;fill:#ffffff;fill-opacity:1;fill-rule:nonzero;stroke:none;stroke-width:4;stroke-linecap:butt;stroke-linejoin:miter;stroke-miterlimit:4;stroke-dasharray:none;stroke-dashoffset:0;stroke-opacity:1;marker:none;color-rendering:auto;image-rendering:auto;shape-rendering:auto;text-rendering:auto;enable-background:accumulate"
     id="rect6754"
     width="3"
     height="16"
     x="10.5"
     y="2" />
</svg>
